<?xml version="1.0" encoding="UTF-8"?>
<glyph name="AE" format="1">
  <advance width="964"/>
  <unicode hex="00C6"/>
  <outline>
    <contour>
      <point x="284" y="313" type="line"/>
      <point x="205" y="114" type="line"/>
      <point x="191" y="78" type="line"/>
      <point x="191" y="78"/>
      <point x="190" y="76"/>
      <point x="190" y="72" type="curve" smooth="yes"/>
      <point x="190" y="61"/>
      <point x="199" y="37"/>
      <point x="274" y="37" type="curve"/>
      <point x="274" y="0" type="line"/>
      <point x="160" y="0" type="line"/>
      <point x="153" y="0" type="line"/>
      <point x="113" y="0" type="line"/>
      <point x="82" y="0" type="line"/>
      <point x="30" y="0" type="line"/>
      <point x="30" y="37" type="line"/>
      <point x="89" y="37"/>
      <point x="107" y="65"/>
      <point x="112" y="75" type="curve" smooth="yes"/>
      <point x="387" y="768" type="line"/>
      <point x="434" y="768" type="line"/>
      <point x="503" y="768" type="line"/>
      <point x="526" y="768" type="line"/>
      <point x="934" y="768" type="line"/>
      <point x="934" y="690" type="line"/>
      <point x="934" y="608" type="line"/>
      <point x="898" y="608" type="line"/>
      <point x="898" y="676"/>
      <point x="856" y="690"/>
      <point x="856" y="690" type="curve"/>
      <point x="526" y="690" type="line"/>
      <point x="526" y="427" type="line"/>
      <point x="786" y="427" type="line"/>
      <point x="786" y="427"/>
      <point x="827" y="429"/>
      <point x="827" y="510" type="curve"/>
      <point x="864" y="510" type="line"/>
      <point x="864" y="427" type="line"/>
      <point x="864" y="358" type="line"/>
      <point x="864" y="275" type="line"/>
      <point x="827" y="275" type="line"/>
      <point x="827" y="356"/>
      <point x="786" y="358"/>
      <point x="786" y="358" type="curve"/>
      <point x="526" y="358" type="line"/>
      <point x="526" y="78" type="line"/>
      <point x="856" y="78" type="line" smooth="yes"/>
      <point x="861" y="78"/>
      <point x="898" y="92"/>
      <point x="898" y="160" type="curve"/>
      <point x="934" y="160" type="line"/>
      <point x="934" y="78" type="line"/>
      <point x="934" y="0" type="line"/>
      <point x="526" y="0" type="line"/>
      <point x="434" y="0" type="line"/>
      <point x="351" y="0" type="line"/>
      <point x="351" y="37" type="line"/>
      <point x="432" y="37"/>
      <point x="434" y="78"/>
      <point x="434" y="78" type="curve"/>
      <point x="434" y="285" type="line"/>
    </contour>
    <contour>
      <point x="310" y="377" type="line"/>
      <point x="434" y="353" type="line"/>
      <point x="434" y="690" type="line"/>
    </contour>
  </outline>
  <lib>
    <dict>
      <key>com.fontlab.hintData</key>
      <dict>
        <key>hhints</key>
        <array>
          <dict>
            <key>position</key>
            <integer>0</integer>
            <key>width</key>
            <integer>78</integer>
          </dict>
          <dict>
            <key>position</key>
            <integer>0</integer>
            <key>width</key>
            <integer>37</integer>
          </dict>
          <dict>
            <key>position</key>
            <integer>358</integer>
            <key>width</key>
            <integer>69</integer>
          </dict>
          <dict>
            <key>position</key>
            <integer>490</integer>
            <key>width</key>
            <integer>20</integer>
          </dict>
          <dict>
            <key>position</key>
            <integer>690</integer>
            <key>width</key>
            <integer>78</integer>
          </dict>
        </array>
        <key>vhints</key>
        <array>
          <dict>
            <key>position</key>
            <integer>434</integer>
            <key>width</key>
            <integer>92</integer>
          </dict>
          <dict>
            <key>position</key>
            <integer>827</integer>
            <key>width</key>
            <integer>37</integer>
          </dict>
          <dict>
            <key>position</key>
            <integer>898</integer>
            <key>width</key>
            <integer>36</integer>
          </dict>
        </array>
      </dict>
    </dict>
  </lib>
</glyph>
