<?xml version="1.0" encoding="UTF-8"?>
<glyph name="ccaron" format="1">
  <advance width="530"/>
  <unicode hex="010D"/>
  <outline>
    <component base="caron" xOffset="-56.4577" yOffset="-7"/>
    <component base="c"/>
  </outline>
  <lib>
    <dict>
      <key>com.fontlab.hintData</key>
      <dict>
        <key>hhints</key>
        <array>
          <dict>
            <key>position</key>
            <integer>-13</integer>
            <key>width</key>
            <integer>54</integer>
          </dict>
          <dict>
            <key>position</key>
            <integer>453</integer>
            <key>width</key>
            <integer>63</integer>
          </dict>
          <dict>
            <key>position</key>
            <integer>576</integer>
            <key>width</key>
            <integer>185</integer>
          </dict>
        </array>
        <key>vhints</key>
        <array>
          <dict>
            <key>position</key>
            <integer>30</integer>
            <key>width</key>
            <integer>92</integer>
          </dict>
          <dict>
            <key>position</key>
            <integer>269</integer>
            <key>width</key>
            <integer>89</integer>
          </dict>
          <dict>
            <key>position</key>
            <integer>380</integer>
            <key>width</key>
            <integer>115</integer>
          </dict>
        </array>
      </dict>
    </dict>
  </lib>
</glyph>
