<?xml version="1.0" encoding="UTF-8"?>
<glyph name="e" format="1">
  <advance width="538"/>
  <unicode hex="0065"/>
  <outline>
    <contour>
      <point x="120" y="242" type="line"/>
      <point x="125" y="110"/>
      <point x="198" y="41"/>
      <point x="268" y="41" type="curve" smooth="yes"/>
      <point x="364" y="41"/>
      <point x="385" y="95"/>
      <point x="388" y="147" type="curve"/>
      <point x="501" y="172" type="line"/>
      <point x="472" y="68"/>
      <point x="396" y="-12"/>
      <point x="268" y="-13" type="curve" smooth="yes"/>
      <point x="267" y="-13"/>
      <point x="267" y="-13"/>
      <point x="266" y="-13" type="curve" smooth="yes"/>
      <point x="130" y="-13"/>
      <point x="30" y="82"/>
      <point x="30" y="255" type="curve" smooth="yes"/>
      <point x="30" y="437"/>
      <point x="169" y="516"/>
      <point x="267" y="516" type="curve" smooth="yes"/>
      <point x="374" y="516"/>
      <point x="509" y="476"/>
      <point x="509" y="283" type="curve" smooth="yes"/>
      <point x="509" y="270"/>
      <point x="508" y="256"/>
      <point x="507" y="242" type="curve"/>
    </contour>
    <contour>
      <point x="124" y="304" type="curve"/>
      <point x="417" y="304" type="line"/>
      <point x="420" y="315"/>
      <point x="421" y="325"/>
      <point x="421" y="335" type="curve" smooth="yes"/>
      <point x="421" y="408"/>
      <point x="352" y="454"/>
      <point x="276" y="454" type="curve" smooth="yes"/>
      <point x="186" y="454"/>
      <point x="137" y="385"/>
    </contour>
  </outline>
  <lib>
    <dict>
      <key>com.fontlab.hintData</key>
      <dict>
        <key>hhints</key>
        <array>
          <dict>
            <key>position</key>
            <integer>-13</integer>
            <key>width</key>
            <integer>54</integer>
          </dict>
          <dict>
            <key>position</key>
            <integer>454</integer>
            <key>width</key>
            <integer>62</integer>
          </dict>
        </array>
        <key>vhints</key>
        <array>
          <dict>
            <key>position</key>
            <integer>30</integer>
            <key>width</key>
            <integer>90</integer>
          </dict>
          <dict>
            <key>position</key>
            <integer>421</integer>
            <key>width</key>
            <integer>88</integer>
          </dict>
        </array>
      </dict>
    </dict>
  </lib>
</glyph>
