<?xml version="1.0" encoding="UTF-8"?>
<glyph name="I" format="1">
  <advance width="318"/>
  <unicode hex="0049"/>
  <outline>
    <contour>
      <point x="113" y="78" type="curve"/>
      <point x="113" y="690" type="line"/>
      <point x="113" y="690"/>
      <point x="111" y="731"/>
      <point x="30" y="731" type="curve"/>
      <point x="30" y="768" type="line"/>
      <point x="113" y="768" type="line"/>
      <point x="205" y="768" type="line"/>
      <point x="288" y="768" type="line"/>
      <point x="288" y="731" type="line"/>
      <point x="207" y="731"/>
      <point x="205" y="690"/>
      <point x="205" y="690" type="curve"/>
      <point x="205" y="78" type="line"/>
      <point x="205" y="78"/>
      <point x="207" y="37"/>
      <point x="288" y="37" type="curve"/>
      <point x="288" y="0" type="line"/>
      <point x="205" y="0" type="line"/>
      <point x="113" y="0" type="line"/>
      <point x="30" y="0" type="line"/>
      <point x="30" y="37" type="line"/>
      <point x="111" y="37"/>
      <point x="113" y="78"/>
    </contour>
  </outline>
  <lib>
    <dict>
      <key>com.fontlab.hintData</key>
      <dict>
        <key>hhints</key>
        <array>
          <dict>
            <key>position</key>
            <integer>0</integer>
            <key>width</key>
            <integer>37</integer>
          </dict>
          <dict>
            <key>position</key>
            <integer>731</integer>
            <key>width</key>
            <integer>37</integer>
          </dict>
        </array>
        <key>vhints</key>
        <array>
          <dict>
            <key>position</key>
            <integer>113</integer>
            <key>width</key>
            <integer>92</integer>
          </dict>
        </array>
      </dict>
    </dict>
  </lib>
</glyph>
