<?xml version="1.0" encoding="UTF-8"?>
<glyph name="quotedblbase" format="1">
  <advance width="493"/>
  <unicode hex="201E"/>
  <outline>
    <contour>
      <point x="39" y="-187" type="curve"/>
      <point x="30" y="-160" type="line"/>
      <point x="30" y="-160"/>
      <point x="131" y="-106"/>
      <point x="131" y="11" type="curve" smooth="yes"/>
      <point x="131" y="48"/>
      <point x="101" y="68"/>
      <point x="101" y="68" type="curve"/>
      <point x="118" y="78" type="line"/>
      <point x="118" y="78"/>
      <point x="146" y="58"/>
      <point x="175" y="58" type="curve" smooth="yes"/>
      <point x="212" y="58"/>
      <point x="228" y="78"/>
      <point x="228" y="78" type="curve"/>
      <point x="243" y="72" type="line"/>
      <point x="243" y="-84"/>
      <point x="39" y="-187"/>
    </contour>
    <contour>
      <point x="259" y="-187" type="curve"/>
      <point x="250" y="-160" type="line"/>
      <point x="250" y="-160"/>
      <point x="351" y="-106"/>
      <point x="351" y="11" type="curve" smooth="yes"/>
      <point x="351" y="48"/>
      <point x="321" y="68"/>
      <point x="321" y="68" type="curve"/>
      <point x="338" y="78" type="line"/>
      <point x="338" y="78"/>
      <point x="366" y="58"/>
      <point x="395" y="58" type="curve" smooth="yes"/>
      <point x="432" y="58"/>
      <point x="448" y="78"/>
      <point x="448" y="78" type="curve"/>
      <point x="463" y="72" type="line"/>
      <point x="463" y="-84"/>
      <point x="259" y="-187"/>
    </contour>
  </outline>
  <lib>
    <dict>
      <key>com.fontlab.hintData</key>
      <dict>
        <key>hhints</key>
        <array>
          <dict>
            <key>position</key>
            <integer>-187</integer>
            <key>width</key>
            <integer>265</integer>
          </dict>
        </array>
      </dict>
    </dict>
  </lib>
</glyph>
