<?xml version="1.0" encoding="UTF-8"?>
<glyph name="seven" format="1">
  <advance width="610"/>
  <unicode hex="0037"/>
  <outline>
    <contour>
      <point x="483" y="694" type="line"/>
      <point x="133" y="694" type="line"/>
      <point x="133" y="694"/>
      <point x="82" y="692"/>
      <point x="72" y="611" type="curve"/>
      <point x="35" y="611" type="line"/>
      <point x="55" y="768" type="line"/>
      <point x="575" y="768" type="line"/>
      <point x="575" y="694" type="line"/>
      <point x="332" y="74" type="line" smooth="yes"/>
      <point x="332" y="73"/>
      <point x="331" y="72"/>
      <point x="331" y="69" type="curve" smooth="yes"/>
      <point x="331" y="59"/>
      <point x="343" y="37"/>
      <point x="441" y="37" type="curve"/>
      <point x="441" y="0" type="line"/>
      <point x="303" y="0" type="line"/>
      <point x="211" y="0" type="line"/>
      <point x="128" y="0" type="line"/>
      <point x="128" y="37" type="line"/>
      <point x="218" y="37"/>
      <point x="240" y="74"/>
      <point x="242" y="79" type="curve" smooth="yes"/>
    </contour>
    <contour>
      <point x="332" y="74" type="move"/>
    </contour>
  </outline>
  <lib>
    <dict>
      <key>com.fontlab.hintData</key>
      <dict>
        <key>hhints</key>
        <array>
          <dict>
            <key>position</key>
            <integer>0</integer>
            <key>width</key>
            <integer>37</integer>
          </dict>
          <dict>
            <key>position</key>
            <integer>694</integer>
            <key>width</key>
            <integer>74</integer>
          </dict>
        </array>
        <key>vhints</key>
        <array>
          <dict>
            <key>position</key>
            <integer>35</integer>
            <key>width</key>
            <integer>37</integer>
          </dict>
        </array>
      </dict>
    </dict>
  </lib>
</glyph>
