<?xml version="1.0" encoding="UTF-8"?>
<glyph name="slash" format="1">
  <advance width="412"/>
  <unicode hex="002F"/>
  <outline>
    <contour>
      <point x="310" y="768" type="line"/>
      <point x="382" y="768" type="line"/>
      <point x="102" y="-200" type="line"/>
      <point x="30" y="-200" type="line"/>
    </contour>
  </outline>
  <lib>
    <dict>
      <key>com.fontlab.hintData</key>
      <dict>
        <key>hhints</key>
        <array>
          <dict>
            <key>position</key>
            <integer>748</integer>
            <key>width</key>
            <integer>20</integer>
          </dict>
        </array>
      </dict>
    </dict>
  </lib>
</glyph>
