<?xml version="1.0" encoding="UTF-8"?>
<glyph name="uni261E" format="1">
  <advance width="1670"/>
  <unicode hex="261E"/>
  <outline>
    <contour>
      <point x="118" y="558" type="curve" smooth="yes"/>
      <point x="97" y="558"/>
      <point x="70" y="544"/>
      <point x="70" y="516" type="curve" smooth="yes"/>
      <point x="70" y="332"/>
      <point x="30" y="228"/>
      <point x="30" y="40" type="curve" smooth="yes"/>
      <point x="30" y="14"/>
      <point x="49" y="-12"/>
      <point x="78" y="-12" type="curve" smooth="yes"/>
      <point x="398" y="-12" type="line" smooth="yes"/>
      <point x="472" y="-12"/>
      <point x="494" y="112"/>
      <point x="522" y="112" type="curve" smooth="yes"/>
      <point x="605" y="112"/>
      <point x="666" y="66"/>
      <point x="842" y="66" type="curve" smooth="yes"/>
      <point x="846" y="66"/>
      <point x="850" y="65"/>
      <point x="854" y="65" type="curve"/>
      <point x="849.275" y="58.3854"/>
      <point x="847.229" y="51.3242"/>
      <point x="847.229" y="44.4495" type="curve" smooth="yes"/>
      <point x="847.229" y="36.7737"/>
      <point x="849.78" y="29.3303"/>
      <point x="854" y="23" type="curve" smooth="yes"/>
      <point x="874.319" y="-7.47921"/>
      <point x="903.17" y="-49.9013"/>
      <point x="948.429" y="-49.9013" type="curve" smooth="yes"/>
      <point x="952.172" y="-49.9013"/>
      <point x="956.028" y="-49.6111"/>
      <point x="960" y="-49" type="curve" smooth="yes"/>
      <point x="1031" y="-39"/>
      <point x="1087" y="-22"/>
      <point x="1098" y="14" type="curve" smooth="yes"/>
      <point x="1098.52" y="15.8742"/>
      <point x="1098.77" y="17.9001"/>
      <point x="1098.77" y="20.0586" type="curve" smooth="yes"/>
      <point x="1098.77" y="38.6311"/>
      <point x="1080.29" y="67.0195"/>
      <point x="1057" y="93" type="curve"/>
      <point x="1077" y="78"/>
      <point x="1098" y="66"/>
      <point x="1122" y="66" type="curve" smooth="yes"/>
      <point x="1176" y="66"/>
      <point x="1198" y="89"/>
      <point x="1199" y="116" type="curve" smooth="yes"/>
      <point x="1199" y="131"/>
      <point x="1188" y="161"/>
      <point x="1162" y="194" type="curve"/>
      <point x="1174.96" y="180.119"/>
      <point x="1185.34" y="163.669"/>
      <point x="1204.25" y="163.669" type="curve" smooth="yes"/>
      <point x="1205.78" y="163.669"/>
      <point x="1207.36" y="163.776"/>
      <point x="1209" y="164" type="curve" smooth="yes"/>
      <point x="1253" y="168"/>
      <point x="1299" y="196"/>
      <point x="1299" y="228" type="curve" smooth="yes"/>
      <point x="1299" y="257"/>
      <point x="1205" y="363"/>
      <point x="1135" y="400" type="curve"/>
      <point x="1152" y="403"/>
      <point x="1171" y="406"/>
      <point x="1194" y="406" type="curve" smooth="yes"/>
      <point x="1242.48" y="406"/>
      <point x="1415.89" y="324.594"/>
      <point x="1513.07" y="324.594" type="curve" smooth="yes"/>
      <point x="1524.13" y="324.594"/>
      <point x="1534.21" y="325.649"/>
      <point x="1543" y="328" type="curve" smooth="yes"/>
      <point x="1578" y="337"/>
      <point x="1603" y="349"/>
      <point x="1619" y="363" type="curve" smooth="yes"/>
      <point x="1632.11" y="373.485"/>
      <point x="1640.49" y="386.977"/>
      <point x="1640.49" y="400.097" type="curve" smooth="yes"/>
      <point x="1640.49" y="406.998"/>
      <point x="1638.17" y="413.796"/>
      <point x="1633" y="420" type="curve" smooth="yes"/>
      <point x="1612" y="445"/>
      <point x="1313" y="568"/>
      <point x="1140" y="568" type="curve" smooth="yes"/>
      <point x="970" y="568"/>
      <point x="555" y="488"/>
      <point x="492" y="488" type="curve" smooth="yes"/>
      <point x="434" y="488"/>
      <point x="467" y="528"/>
      <point x="414" y="528" type="curve" smooth="yes"/>
      <point x="301" y="528"/>
      <point x="237" y="558"/>
    </contour>
    <contour>
      <point x="118" y="532" type="curve" smooth="yes"/>
      <point x="232" y="532"/>
      <point x="296" y="504"/>
      <point x="414" y="504" type="curve" smooth="yes"/>
      <point x="430" y="504"/>
      <point x="419" y="462"/>
      <point x="492" y="462" type="curve" smooth="yes"/>
      <point x="562" y="462"/>
      <point x="975" y="544"/>
      <point x="1140" y="544" type="curve" smooth="yes"/>
      <point x="1300" y="544"/>
      <point x="1591" y="422"/>
      <point x="1614" y="404" type="curve" smooth="yes"/>
      <point x="1616" y="402"/>
      <point x="1619" y="394"/>
      <point x="1601" y="380" type="curve" smooth="yes"/>
      <point x="1588" y="371"/>
      <point x="1567" y="360"/>
      <point x="1536" y="352" type="curve" smooth="yes"/>
      <point x="1466" y="333"/>
      <point x="1263" y="430"/>
      <point x="1194" y="430" type="curve" smooth="yes"/>
      <point x="1132" y="430"/>
      <point x="1088" y="412"/>
      <point x="1087" y="411" type="curve" smooth="yes"/>
      <point x="1083" y="410"/>
      <point x="1079" y="406"/>
      <point x="1079" y="401" type="curve" smooth="yes"/>
      <point x="1078" y="394"/>
      <point x="1084" y="388"/>
      <point x="1092" y="388" type="curve" smooth="yes"/>
      <point x="1145" y="388"/>
      <point x="1264" y="254"/>
      <point x="1274" y="227" type="curve"/>
      <point x="1272" y="218"/>
      <point x="1245" y="192"/>
      <point x="1206" y="188" type="curve" smooth="yes"/>
      <point x="1194" y="187"/>
      <point x="1178" y="254"/>
      <point x="1034" y="288" type="curve" smooth="yes"/>
      <point x="1028" y="290"/>
      <point x="1021" y="286"/>
      <point x="1019" y="278" type="curve" smooth="yes"/>
      <point x="1017" y="268" type="line" smooth="yes"/>
      <point x="1016" y="262"/>
      <point x="1020" y="256"/>
      <point x="1026" y="254" type="curve" smooth="yes"/>
      <point x="1140" y="220"/>
      <point x="1174" y="127"/>
      <point x="1174" y="116" type="curve" smooth="yes"/>
      <point x="1174" y="107"/>
      <point x="1169" y="90"/>
      <point x="1122" y="90" type="curve" smooth="yes"/>
      <point x="1085" y="90"/>
      <point x="1034" y="159"/>
      <point x="978" y="163" type="curve" smooth="yes"/>
      <point x="948" y="166"/>
      <point x="931" y="163"/>
      <point x="929" y="162" type="curve" smooth="yes"/>
      <point x="924" y="161"/>
      <point x="919" y="156"/>
      <point x="919" y="150" type="curve" smooth="yes"/>
      <point x="919" y="137" type="line" smooth="yes"/>
      <point x="919" y="131"/>
      <point x="924" y="124"/>
      <point x="932" y="125" type="curve" smooth="yes"/>
      <point x="1017" y="125"/>
      <point x="1071" y="39"/>
      <point x="1073" y="20" type="curve"/>
      <point x="1068" y="6"/>
      <point x="1029" y="-15"/>
      <point x="957" y="-25" type="curve" smooth="yes"/>
      <point x="923" y="-29"/>
      <point x="899" y="2"/>
      <point x="875" y="37" type="curve" smooth="yes"/>
      <point x="870" y="45"/>
      <point x="874" y="51"/>
      <point x="874" y="51" type="curve"/>
      <point x="900" y="56"/>
      <point x="918" y="30"/>
      <point x="919" y="28" type="curve" smooth="yes"/>
      <point x="922" y="23"/>
      <point x="930" y="19"/>
      <point x="936" y="23" type="curve" smooth="yes"/>
      <point x="941" y="26" type="line" smooth="yes"/>
      <point x="945" y="29"/>
      <point x="948" y="35"/>
      <point x="946" y="41" type="curve" smooth="yes"/>
      <point x="945" y="45"/>
      <point x="928" y="90"/>
      <point x="842" y="90" type="curve" smooth="yes"/>
      <point x="671" y="90"/>
      <point x="616" y="138"/>
      <point x="522" y="138" type="curve" smooth="yes"/>
      <point x="459" y="138"/>
      <point x="443" y="12"/>
      <point x="398" y="12" type="curve" smooth="yes"/>
      <point x="78" y="12" type="line" smooth="yes"/>
      <point x="66" y="12"/>
      <point x="55" y="24"/>
      <point x="55" y="40" type="curve" smooth="yes"/>
      <point x="55" y="224"/>
      <point x="95" y="328"/>
      <point x="95" y="516" type="curve" smooth="yes"/>
      <point x="95" y="524"/>
      <point x="104" y="532"/>
    </contour>
    <contour>
      <point x="470" y="435" type="curve" smooth="yes"/>
      <point x="473" y="440"/>
      <point x="473" y="450"/>
      <point x="464" y="454" type="curve" smooth="yes"/>
      <point x="434" y="466" type="line" smooth="yes"/>
      <point x="429" y="468"/>
      <point x="422" y="466"/>
      <point x="419" y="460" type="curve" smooth="yes"/>
      <point x="383" y="401"/>
      <point x="371" y="325"/>
      <point x="372" y="246" type="curve" smooth="yes"/>
      <point x="373" y="185"/>
      <point x="381" y="122"/>
      <point x="392" y="63" type="curve" smooth="yes"/>
      <point x="393" y="60"/>
      <point x="394" y="57"/>
      <point x="397" y="55" type="curve" smooth="yes"/>
      <point x="402" y="51"/>
      <point x="411" y="52"/>
      <point x="415" y="58" type="curve" smooth="yes"/>
      <point x="437" y="90" type="line" smooth="yes"/>
      <point x="438" y="92"/>
      <point x="439" y="96"/>
      <point x="439" y="99" type="curve" smooth="yes"/>
      <point x="429" y="149"/>
      <point x="422" y="198"/>
      <point x="422" y="247" type="curve" smooth="yes"/>
      <point x="421" y="315"/>
      <point x="434" y="380"/>
    </contour>
    <contour>
      <point x="397" y="271" type="curve"/>
      <point x="399" y="334"/>
      <point x="410" y="392"/>
      <point x="435" y="438" type="curve"/>
      <point x="441" y="436" type="line"/>
      <point x="411" y="384"/>
      <point x="399" y="329"/>
    </contour>
    <contour>
      <point x="398" y="221" type="curve"/>
      <point x="400" y="181"/>
      <point x="406" y="140"/>
      <point x="413" y="100" type="curve"/>
      <point x="411" y="97" type="line"/>
      <point x="404" y="139"/>
      <point x="399" y="180"/>
    </contour>
    <contour>
      <point x="273" y="448" type="curve" smooth="yes"/>
      <point x="273" y="442"/>
      <point x="269" y="438"/>
      <point x="262" y="438" type="curve" smooth="yes"/>
      <point x="256" y="438"/>
      <point x="252" y="442"/>
      <point x="252" y="448" type="curve" smooth="yes"/>
      <point x="252" y="454"/>
      <point x="256" y="458"/>
      <point x="262" y="458" type="curve" smooth="yes"/>
      <point x="269" y="458"/>
      <point x="273" y="454"/>
    </contour>
    <contour>
      <point x="298" y="448" type="curve" smooth="yes"/>
      <point x="298" y="468"/>
      <point x="282" y="484"/>
      <point x="262" y="484" type="curve" smooth="yes"/>
      <point x="243" y="484"/>
      <point x="227" y="468"/>
      <point x="227" y="448" type="curve" smooth="yes"/>
      <point x="227" y="428"/>
      <point x="243" y="412"/>
      <point x="262" y="412" type="curve" smooth="yes"/>
      <point x="282" y="412"/>
      <point x="298" y="428"/>
    </contour>
    <contour>
      <point x="163" y="355" type="curve" smooth="yes"/>
      <point x="163" y="349"/>
      <point x="159" y="344"/>
      <point x="152" y="344" type="curve" smooth="yes"/>
      <point x="146" y="344"/>
      <point x="142" y="349"/>
      <point x="142" y="355" type="curve" smooth="yes"/>
      <point x="142" y="361"/>
      <point x="146" y="366"/>
      <point x="152" y="366" type="curve" smooth="yes"/>
      <point x="159" y="366"/>
      <point x="163" y="361"/>
    </contour>
    <contour>
      <point x="188" y="355" type="curve" smooth="yes"/>
      <point x="188" y="375"/>
      <point x="172" y="390"/>
      <point x="152" y="390" type="curve" smooth="yes"/>
      <point x="133" y="390"/>
      <point x="117" y="375"/>
      <point x="117" y="355" type="curve" smooth="yes"/>
      <point x="117" y="335"/>
      <point x="133" y="320"/>
      <point x="152" y="320" type="curve" smooth="yes"/>
      <point x="172" y="320"/>
      <point x="188" y="335"/>
    </contour>
    <contour>
      <point x="171" y="445" type="curve" smooth="yes"/>
      <point x="171" y="439"/>
      <point x="167" y="434"/>
      <point x="160" y="434" type="curve" smooth="yes"/>
      <point x="154" y="434"/>
      <point x="150" y="439"/>
      <point x="150" y="445" type="curve" smooth="yes"/>
      <point x="150" y="451"/>
      <point x="154" y="456"/>
      <point x="160" y="456" type="curve" smooth="yes"/>
      <point x="167" y="456"/>
      <point x="171" y="451"/>
    </contour>
    <contour>
      <point x="196" y="445" type="curve" smooth="yes"/>
      <point x="196" y="465"/>
      <point x="180" y="480"/>
      <point x="160" y="480" type="curve" smooth="yes"/>
      <point x="141" y="480"/>
      <point x="125" y="465"/>
      <point x="125" y="445" type="curve" smooth="yes"/>
      <point x="125" y="425"/>
      <point x="141" y="410"/>
      <point x="160" y="410" type="curve" smooth="yes"/>
      <point x="180" y="410"/>
      <point x="196" y="425"/>
    </contour>
    <contour>
      <point x="253" y="356" type="curve" smooth="yes"/>
      <point x="253" y="350"/>
      <point x="249" y="346"/>
      <point x="242" y="346" type="curve" smooth="yes"/>
      <point x="236" y="346"/>
      <point x="232" y="350"/>
      <point x="232" y="356" type="curve" smooth="yes"/>
      <point x="232" y="362"/>
      <point x="236" y="366"/>
      <point x="242" y="366" type="curve" smooth="yes"/>
      <point x="249" y="366"/>
      <point x="253" y="362"/>
    </contour>
    <contour>
      <point x="278" y="356" type="curve" smooth="yes"/>
      <point x="278" y="376"/>
      <point x="262" y="392"/>
      <point x="242" y="392" type="curve" smooth="yes"/>
      <point x="223" y="392"/>
      <point x="207" y="376"/>
      <point x="207" y="356" type="curve" smooth="yes"/>
      <point x="207" y="336"/>
      <point x="223" y="320"/>
      <point x="242" y="320" type="curve" smooth="yes"/>
      <point x="262" y="320"/>
      <point x="278" y="336"/>
    </contour>
    <contour>
      <point x="331" y="395" type="curve" smooth="yes"/>
      <point x="331" y="389"/>
      <point x="327" y="384"/>
      <point x="320" y="384" type="curve" smooth="yes"/>
      <point x="314" y="384"/>
      <point x="310" y="389"/>
      <point x="310" y="395" type="curve" smooth="yes"/>
      <point x="310" y="401"/>
      <point x="314.286" y="405.5"/>
      <point x="320.5" y="405.5" type="curve" smooth="yes"/>
      <point x="326.713" y="405.5"/>
      <point x="331" y="401"/>
    </contour>
    <contour>
      <point x="356" y="395" type="curve" smooth="yes"/>
      <point x="356" y="414.787"/>
      <point x="340.286" y="430.5"/>
      <point x="320.5" y="430.5" type="curve" smooth="yes"/>
      <point x="300.713" y="430.5"/>
      <point x="285" y="414.787"/>
      <point x="285" y="395" type="curve" smooth="yes"/>
      <point x="285" y="375.213"/>
      <point x="300.713" y="359.5"/>
      <point x="320.5" y="359.5" type="curve" smooth="yes"/>
      <point x="340.286" y="359.5"/>
      <point x="356" y="375.213"/>
    </contour>
    <contour>
      <point x="331" y="285" type="curve" smooth="yes"/>
      <point x="331" y="278.787"/>
      <point x="326.713" y="274.5"/>
      <point x="320.5" y="274.5" type="curve" smooth="yes"/>
      <point x="314.286" y="274.5"/>
      <point x="310" y="278.787"/>
      <point x="310" y="285" type="curve" smooth="yes"/>
      <point x="310" y="291.213"/>
      <point x="314.286" y="295.5"/>
      <point x="320.5" y="295.5" type="curve" smooth="yes"/>
      <point x="326.713" y="295.5"/>
      <point x="331" y="291.213"/>
    </contour>
    <contour>
      <point x="356" y="285" type="curve" smooth="yes"/>
      <point x="356" y="304.787"/>
      <point x="340.286" y="320.5"/>
      <point x="320.5" y="320.5" type="curve" smooth="yes"/>
      <point x="300.713" y="320.5"/>
      <point x="285" y="304.787"/>
      <point x="285" y="285" type="curve" smooth="yes"/>
      <point x="285" y="265.213"/>
      <point x="300.713" y="249.5"/>
      <point x="320.5" y="249.5" type="curve" smooth="yes"/>
      <point x="340.286" y="249.5"/>
      <point x="356" y="265.213"/>
    </contour>
    <contour>
      <point x="241" y="255" type="curve" smooth="yes"/>
      <point x="241" y="248.787"/>
      <point x="236.713" y="244.5"/>
      <point x="230.5" y="244.5" type="curve" smooth="yes"/>
      <point x="224.286" y="244.5"/>
      <point x="220" y="248.787"/>
      <point x="220" y="255" type="curve" smooth="yes"/>
      <point x="220" y="261.213"/>
      <point x="224.286" y="265.5"/>
      <point x="230.5" y="265.5" type="curve" smooth="yes"/>
      <point x="236.713" y="265.5"/>
      <point x="241" y="261.213"/>
    </contour>
    <contour>
      <point x="266" y="255" type="curve" smooth="yes"/>
      <point x="266" y="274.787"/>
      <point x="250.286" y="290.5"/>
      <point x="230.5" y="290.5" type="curve" smooth="yes"/>
      <point x="210.713" y="290.5"/>
      <point x="195" y="274.787"/>
      <point x="195" y="255" type="curve" smooth="yes"/>
      <point x="195" y="235.213"/>
      <point x="210.713" y="219.5"/>
      <point x="230.5" y="219.5" type="curve" smooth="yes"/>
      <point x="250.286" y="219.5"/>
      <point x="266" y="235.213"/>
    </contour>
    <contour>
      <point x="151" y="255" type="curve" smooth="yes"/>
      <point x="151" y="248.787"/>
      <point x="146.713" y="244.5"/>
      <point x="140.5" y="244.5" type="curve" smooth="yes"/>
      <point x="134.286" y="244.5"/>
      <point x="130" y="248.787"/>
      <point x="130" y="255" type="curve" smooth="yes"/>
      <point x="130" y="261.213"/>
      <point x="134.286" y="265.5"/>
      <point x="140.5" y="265.5" type="curve" smooth="yes"/>
      <point x="146.713" y="265.5"/>
      <point x="151" y="261.213"/>
    </contour>
    <contour>
      <point x="176" y="255" type="curve" smooth="yes"/>
      <point x="176" y="274.787"/>
      <point x="160.286" y="290.5"/>
      <point x="140.5" y="290.5" type="curve" smooth="yes"/>
      <point x="120.713" y="290.5"/>
      <point x="105" y="274.787"/>
      <point x="105" y="255" type="curve" smooth="yes"/>
      <point x="105" y="235.213"/>
      <point x="120.713" y="219.5"/>
      <point x="140.5" y="219.5" type="curve" smooth="yes"/>
      <point x="160.286" y="219.5"/>
      <point x="176" y="235.213"/>
    </contour>
    <contour>
      <point x="151" y="165" type="curve" smooth="yes"/>
      <point x="151" y="158.787"/>
      <point x="146.713" y="154.5"/>
      <point x="140.5" y="154.5" type="curve" smooth="yes"/>
      <point x="134.286" y="154.5"/>
      <point x="130" y="158.787"/>
      <point x="130" y="165" type="curve" smooth="yes"/>
      <point x="130" y="171.213"/>
      <point x="134.286" y="175.5"/>
      <point x="140.5" y="175.5" type="curve" smooth="yes"/>
      <point x="146.713" y="175.5"/>
      <point x="151" y="171.213"/>
    </contour>
    <contour>
      <point x="176" y="165" type="curve" smooth="yes"/>
      <point x="176" y="184.787"/>
      <point x="160.286" y="200.5"/>
      <point x="140.5" y="200.5" type="curve" smooth="yes"/>
      <point x="120.713" y="200.5"/>
      <point x="105" y="184.787"/>
      <point x="105" y="165" type="curve" smooth="yes"/>
      <point x="105" y="145.213"/>
      <point x="120.713" y="129.5"/>
      <point x="140.5" y="129.5" type="curve" smooth="yes"/>
      <point x="160.286" y="129.5"/>
      <point x="176" y="145.213"/>
    </contour>
    <contour>
      <point x="255" y="165" type="curve" smooth="yes"/>
      <point x="255" y="158.787"/>
      <point x="250.713" y="154.5"/>
      <point x="244.5" y="154.5" type="curve" smooth="yes"/>
      <point x="238.286" y="154.5"/>
      <point x="234" y="158.787"/>
      <point x="234" y="165" type="curve" smooth="yes"/>
      <point x="234" y="171.213"/>
      <point x="238.286" y="175.5"/>
      <point x="244.5" y="175.5" type="curve" smooth="yes"/>
      <point x="250.713" y="175.5"/>
      <point x="255" y="171.213"/>
    </contour>
    <contour>
      <point x="280" y="165" type="curve" smooth="yes"/>
      <point x="280" y="184.787"/>
      <point x="264.286" y="200.5"/>
      <point x="244.5" y="200.5" type="curve" smooth="yes"/>
      <point x="224.713" y="200.5"/>
      <point x="209" y="184.787"/>
      <point x="209" y="165" type="curve" smooth="yes"/>
      <point x="209" y="145.213"/>
      <point x="224.713" y="129.5"/>
      <point x="244.5" y="129.5" type="curve" smooth="yes"/>
      <point x="264.286" y="129.5"/>
      <point x="280" y="145.213"/>
    </contour>
    <contour>
      <point x="325" y="195" type="curve" smooth="yes"/>
      <point x="325" y="188.787"/>
      <point x="320.713" y="184.5"/>
      <point x="314.5" y="184.5" type="curve" smooth="yes"/>
      <point x="308.286" y="184.5"/>
      <point x="304" y="188.787"/>
      <point x="304" y="195" type="curve" smooth="yes"/>
      <point x="304" y="201.213"/>
      <point x="308.286" y="205.5"/>
      <point x="314.5" y="205.5" type="curve" smooth="yes"/>
      <point x="320.713" y="205.5"/>
      <point x="325" y="201.213"/>
    </contour>
    <contour>
      <point x="350" y="195" type="curve" smooth="yes"/>
      <point x="350" y="214.787"/>
      <point x="334.286" y="230.5"/>
      <point x="314.5" y="230.5" type="curve" smooth="yes"/>
      <point x="294.713" y="230.5"/>
      <point x="279" y="214.787"/>
      <point x="279" y="195" type="curve" smooth="yes"/>
      <point x="279" y="175.213"/>
      <point x="294.713" y="159.5"/>
      <point x="314.5" y="159.5" type="curve" smooth="yes"/>
      <point x="334.286" y="159.5"/>
      <point x="350" y="175.213"/>
    </contour>
    <contour>
      <point x="335" y="95" type="curve" smooth="yes"/>
      <point x="335" y="88.7871"/>
      <point x="330.713" y="84.5"/>
      <point x="324.5" y="84.5" type="curve" smooth="yes"/>
      <point x="318.286" y="84.5"/>
      <point x="314" y="88.7871"/>
      <point x="314" y="95" type="curve" smooth="yes"/>
      <point x="314" y="101.213"/>
      <point x="318.286" y="105.5"/>
      <point x="324.5" y="105.5" type="curve" smooth="yes"/>
      <point x="330.713" y="105.5"/>
      <point x="335" y="101.213"/>
    </contour>
    <contour>
      <point x="360" y="95" type="curve" smooth="yes"/>
      <point x="360" y="114.787"/>
      <point x="344.286" y="130.5"/>
      <point x="324.5" y="130.5" type="curve" smooth="yes"/>
      <point x="304.713" y="130.5"/>
      <point x="289" y="114.787"/>
      <point x="289" y="95" type="curve" smooth="yes"/>
      <point x="289" y="75.2129"/>
      <point x="304.713" y="59.5"/>
      <point x="324.5" y="59.5" type="curve" smooth="yes"/>
      <point x="344.286" y="59.5"/>
      <point x="360" y="75.2129"/>
    </contour>
    <contour>
      <point x="235" y="75" type="curve" smooth="yes"/>
      <point x="235" y="68.7871"/>
      <point x="230.713" y="64.5"/>
      <point x="224.5" y="64.5" type="curve" smooth="yes"/>
      <point x="218.286" y="64.5"/>
      <point x="214" y="68.7871"/>
      <point x="214" y="75" type="curve" smooth="yes"/>
      <point x="214" y="81.2129"/>
      <point x="218.286" y="85.5"/>
      <point x="224.5" y="85.5" type="curve" smooth="yes"/>
      <point x="230.713" y="85.5"/>
      <point x="235" y="81.2129"/>
    </contour>
    <contour>
      <point x="260" y="75" type="curve" smooth="yes"/>
      <point x="260" y="94.7871"/>
      <point x="244.286" y="110.5"/>
      <point x="224.5" y="110.5" type="curve" smooth="yes"/>
      <point x="204.713" y="110.5"/>
      <point x="189" y="94.7871"/>
      <point x="189" y="75" type="curve" smooth="yes"/>
      <point x="189" y="55.2129"/>
      <point x="204.713" y="39.5"/>
      <point x="224.5" y="39.5" type="curve" smooth="yes"/>
      <point x="244.286" y="39.5"/>
      <point x="260" y="55.2129"/>
    </contour>
    <contour>
      <point x="145" y="75" type="curve" smooth="yes"/>
      <point x="145" y="68.7871"/>
      <point x="140.713" y="64.5"/>
      <point x="134.5" y="64.5" type="curve" smooth="yes"/>
      <point x="128.286" y="64.5"/>
      <point x="124" y="68.7871"/>
      <point x="124" y="75" type="curve" smooth="yes"/>
      <point x="124" y="81.2129"/>
      <point x="128.286" y="85.5"/>
      <point x="134.5" y="85.5" type="curve" smooth="yes"/>
      <point x="140.713" y="85.5"/>
      <point x="145" y="81.2129"/>
    </contour>
    <contour>
      <point x="170" y="75" type="curve" smooth="yes"/>
      <point x="170" y="94.7871"/>
      <point x="154.286" y="110.5"/>
      <point x="134.5" y="110.5" type="curve" smooth="yes"/>
      <point x="114.713" y="110.5"/>
      <point x="99" y="94.7871"/>
      <point x="99" y="75" type="curve" smooth="yes"/>
      <point x="99" y="55.2129"/>
      <point x="114.713" y="39.5"/>
      <point x="134.5" y="39.5" type="curve" smooth="yes"/>
      <point x="154.286" y="39.5"/>
      <point x="170" y="55.2129"/>
    </contour>
  </outline>
  <lib>
    <dict>
      <key>com.fontlab.hintData</key>
      <dict>
        <key>hhints</key>
        <array>
          <dict>
            <key>position</key>
            <integer>-12</integer>
            <key>width</key>
            <integer>25</integer>
          </dict>
          <dict>
            <key>position</key>
            <integer>40</integer>
            <key>width</key>
            <integer>25</integer>
          </dict>
          <dict>
            <key>position</key>
            <integer>66</integer>
            <key>width</key>
            <integer>25</integer>
          </dict>
          <dict>
            <key>position</key>
            <integer>86</integer>
            <key>width</key>
            <integer>25</integer>
          </dict>
          <dict>
            <key>position</key>
            <integer>106</integer>
            <key>width</key>
            <integer>25</integer>
          </dict>
          <dict>
            <key>position</key>
            <integer>112</integer>
            <key>width</key>
            <integer>25</integer>
          </dict>
          <dict>
            <key>position</key>
            <integer>125</integer>
            <key>width</key>
            <integer>38</integer>
          </dict>
          <dict>
            <key>position</key>
            <integer>130</integer>
            <key>width</key>
            <integer>25</integer>
          </dict>
          <dict>
            <key>position</key>
            <integer>160</integer>
            <key>width</key>
            <integer>25</integer>
          </dict>
          <dict>
            <key>position</key>
            <integer>176</integer>
            <key>width</key>
            <integer>25</integer>
          </dict>
          <dict>
            <key>position</key>
            <integer>206</integer>
            <key>width</key>
            <integer>25</integer>
          </dict>
          <dict>
            <key>position</key>
            <integer>220</integer>
            <key>width</key>
            <integer>25</integer>
          </dict>
          <dict>
            <key>position</key>
            <integer>250</integer>
            <key>width</key>
            <integer>25</integer>
          </dict>
          <dict>
            <key>position</key>
            <integer>254</integer>
            <key>width</key>
            <integer>34</integer>
          </dict>
          <dict>
            <key>position</key>
            <integer>266</integer>
            <key>width</key>
            <integer>25</integer>
          </dict>
          <dict>
            <key>position</key>
            <integer>296</integer>
            <key>width</key>
            <integer>25</integer>
          </dict>
          <dict>
            <key>position</key>
            <integer>320</integer>
            <key>width</key>
            <integer>25</integer>
          </dict>
          <dict>
            <key>position</key>
            <integer>360</integer>
            <key>width</key>
            <integer>25</integer>
          </dict>
          <dict>
            <key>position</key>
            <integer>366</integer>
            <key>width</key>
            <integer>25</integer>
          </dict>
          <dict>
            <key>position</key>
            <integer>406</integer>
            <key>width</key>
            <integer>25</integer>
          </dict>
          <dict>
            <key>position</key>
            <integer>412</integer>
            <key>width</key>
            <integer>25</integer>
          </dict>
          <dict>
            <key>position</key>
            <integer>456</integer>
            <key>width</key>
            <integer>25</integer>
          </dict>
          <dict>
            <key>position</key>
            <integer>458</integer>
            <key>width</key>
            <integer>25</integer>
          </dict>
          <dict>
            <key>position</key>
            <integer>504</integer>
            <key>width</key>
            <integer>25</integer>
          </dict>
          <dict>
            <key>position</key>
            <integer>532</integer>
            <key>width</key>
            <integer>25</integer>
          </dict>
          <dict>
            <key>position</key>
            <integer>544</integer>
            <key>width</key>
            <integer>25</integer>
          </dict>
        </array>
        <key>vhints</key>
        <array>
          <dict>
            <key>position</key>
            <integer>30</integer>
            <key>width</key>
            <integer>25</integer>
          </dict>
          <dict>
            <key>position</key>
            <integer>70</integer>
            <key>width</key>
            <integer>25</integer>
          </dict>
          <dict>
            <key>position</key>
            <integer>105</integer>
            <key>width</key>
            <integer>25</integer>
          </dict>
          <dict>
            <key>position</key>
            <integer>117</integer>
            <key>width</key>
            <integer>25</integer>
          </dict>
          <dict>
            <key>position</key>
            <integer>125</integer>
            <key>width</key>
            <integer>25</integer>
          </dict>
          <dict>
            <key>position</key>
            <integer>151</integer>
            <key>width</key>
            <integer>25</integer>
          </dict>
          <dict>
            <key>position</key>
            <integer>163</integer>
            <key>width</key>
            <integer>25</integer>
          </dict>
          <dict>
            <key>position</key>
            <integer>171</integer>
            <key>width</key>
            <integer>25</integer>
          </dict>
          <dict>
            <key>position</key>
            <integer>189</integer>
            <key>width</key>
            <integer>25</integer>
          </dict>
          <dict>
            <key>position</key>
            <integer>209</integer>
            <key>width</key>
            <integer>25</integer>
          </dict>
          <dict>
            <key>position</key>
            <integer>227</integer>
            <key>width</key>
            <integer>25</integer>
          </dict>
          <dict>
            <key>position</key>
            <integer>235</integer>
            <key>width</key>
            <integer>25</integer>
          </dict>
          <dict>
            <key>position</key>
            <integer>255</integer>
            <key>width</key>
            <integer>25</integer>
          </dict>
          <dict>
            <key>position</key>
            <integer>279</integer>
            <key>width</key>
            <integer>25</integer>
          </dict>
          <dict>
            <key>position</key>
            <integer>285</integer>
            <key>width</key>
            <integer>25</integer>
          </dict>
          <dict>
            <key>position</key>
            <integer>331</integer>
            <key>width</key>
            <integer>25</integer>
          </dict>
          <dict>
            <key>position</key>
            <integer>372</integer>
            <key>width</key>
            <integer>26</integer>
          </dict>
          <dict>
            <key>position</key>
            <integer>398</integer>
            <key>width</key>
            <integer>24</integer>
          </dict>
          <dict>
            <key>position</key>
            <integer>919</integer>
            <key>width</key>
            <integer>28</integer>
          </dict>
          <dict>
            <key>position</key>
            <integer>1174</integer>
            <key>width</key>
            <integer>25</integer>
          </dict>
        </array>
      </dict>
    </dict>
  </lib>
</glyph>
