<?xml version="1.0" encoding="UTF-8"?>
<glyph name="Ydieresis" format="1">
  <advance width="810"/>
  <unicode hex="0178"/>
  <outline>
    <component base="dieresis" xOffset="116.5" yOffset="225.7"/>
    <component base="Y"/>
  </outline>
  <lib>
    <dict>
      <key>com.fontlab.hintData</key>
      <dict>
        <key>hhints</key>
        <array>
          <dict>
            <key>position</key>
            <integer>0</integer>
            <key>width</key>
            <integer>37</integer>
          </dict>
          <dict>
            <key>position</key>
            <integer>731</integer>
            <key>width</key>
            <integer>37</integer>
          </dict>
          <dict>
            <key>position</key>
            <integer>874</integer>
            <key>width</key>
            <integer>114</integer>
          </dict>
        </array>
        <key>vhints</key>
        <array>
          <dict>
            <key>position</key>
            <integer>274</integer>
            <key>width</key>
            <integer>113</integer>
          </dict>
          <dict>
            <key>position</key>
            <integer>352</integer>
            <key>width</key>
            <integer>92</integer>
          </dict>
          <dict>
            <key>position</key>
            <integer>456</integer>
            <key>width</key>
            <integer>113</integer>
          </dict>
        </array>
      </dict>
    </dict>
  </lib>
</glyph>
